<svg width="48" height="48" viewBox="0 0 48 48" fill="none" xmlns="http://www.w3.org/2000/svg">
<g clip-path="url(#clip0_158_427)">
<path d="M24 48C37.2548 48 48 37.2548 48 24C48 10.7452 37.2548 0 24 0C10.7452 0 0 10.7452 0 24C0 37.2548 10.7452 48 24 48Z" fill="#606060"/>
<path d="M34.2823 24.5806C34.7443 23.988 35 23.2619 35 22.5064C35 21.3077 34.3097 20.1732 33.1987 19.5405C32.9127 19.3776 32.5871 19.2919 32.2555 19.2922H25.661L25.826 16.0113C25.8645 15.2184 25.5758 14.4656 25.0148 13.8917C24.7394 13.6088 24.4073 13.3837 24.0388 13.2303C23.6704 13.077 23.2734 12.9986 22.8725 13C21.4425 13 20.1775 13.9344 19.798 15.2718L17.4357 23.5742H17.4275V35H30.4157C30.6687 35 30.9162 34.9519 31.1445 34.8558C32.4535 34.3139 33.2977 33.0726 33.2977 31.6951C33.2977 31.3587 33.2483 31.0277 33.1493 30.7073C33.6113 30.1147 33.867 29.3885 33.867 28.6331C33.867 28.2967 33.8175 27.9657 33.7185 27.6453C34.1805 27.0527 34.4362 26.3265 34.4362 25.5711C34.4307 25.2347 34.3813 24.901 34.2823 24.5806V24.5806ZM13 24.4285V34.1457C13 34.6182 13.3932 35 13.88 35H15.6675V23.5742H13.88C13.3932 23.5742 13 23.956 13 24.4285Z" fill="white"/>
</g>
<defs>
<clipPath id="clip0_158_427">
<rect width="48" height="48" fill="white"/>
</clipPath>
</defs>
</svg>
